^C:\USERS\ILYA\SOURCE\REPOS\PROJECT2\PROJECT2\MAIN.CPP
C:\USERS\ILYA\SOURCE\REPOS\PROJECT2\PROJECT2\DEBUG\VC142.PDB
C:\USERS\ILYA\SOURCE\REPOS\PROJECT2\PROJECT2\DEBUG\VC142.IDB
C:\USERS\ILYA\SOURCE\REPOS\PROJECT2\PROJECT2\DEBUG\MAIN.OBJ
